<svg xmlns="http://www.w3.org/2000/svg" width="14.832" height="10.432" viewBox="0 0 14.832 10.432">
  <g id="youtube" transform="translate(-342.889 -7166.662)">
    <path id="Path_63044" data-name="Path 63044" d="M357.423,7168.292a12.257,12.257,0,0,1,.271,2.228l.027,1.358-.027,1.359a12.4,12.4,0,0,1-.271,2.255,1.931,1.931,0,0,1-1.331,1.3,19.408,19.408,0,0,1-3.314.271l-2.472.027-2.472-.027a19.408,19.408,0,0,1-3.314-.271,1.931,1.931,0,0,1-1.332-1.3,12.467,12.467,0,0,1-.271-2.255l-.027-1.359q0-.6.027-1.358a12.32,12.32,0,0,1,.271-2.228,1.9,1.9,0,0,1,1.332-1.331,19.354,19.354,0,0,1,3.314-.271l2.472-.027,2.472.027a19.355,19.355,0,0,1,3.314.271,1.9,1.9,0,0,1,1.331,1.331Zm-8.64,5.814,3.886-2.229-3.886-2.2Z" fill="#fff"/>
  </g>
</svg>
